<?xml version="1.0" encoding="utf-8"?>
<!-- Generator: Adobe Illustrator 19.0.0, SVG Export Plug-In . SVG Version: 6.00 Build 0)  -->
<svg version="1.1" id="Layer_1" xmlns="http://www.w3.org/2000/svg" xmlns:xlink="http://www.w3.org/1999/xlink" x="0px" y="0px"
	 width="1026.2px" height="140.3px" viewBox="0 0 1026.2 140.3" style="enable-background:new 0 0 1026.2 140.3;"
	 xml:space="preserve">
<style type="text/css">
	.st0{clip-path:url(#SVGID_2_);}
	.st1{fill:none;stroke:#14141B;stroke-width:1.5;stroke-miterlimit:10;}
</style>
<g id="XMLID_2087_">
	<g>
		<defs>
			<rect id="SVGID_1_" x="-3.9" y="-0.9" width="1032" height="142.1"/>
		</defs>
		<clipPath id="SVGID_2_">
			<use xlink:href="#SVGID_1_"  style="overflow:visible;"/>
		</clipPath>
		<g id="XMLID_2099_" class="st0">
			<line id="XMLID_2_" class="st1" x1="1213" y1="-10.1" x2="1060.3" y2="142.7"/>
			<line id="XMLID_236_" class="st1" x1="1207.8" y1="-10.1" x2="1055.1" y2="142.7"/>
			<line id="XMLID_235_" class="st1" x1="1202.6" y1="-10.1" x2="1049.9" y2="142.7"/>
			<line id="XMLID_234_" class="st1" x1="1197.4" y1="-10.1" x2="1044.7" y2="142.7"/>
			<line id="XMLID_233_" class="st1" x1="1192.2" y1="-10.1" x2="1039.5" y2="142.7"/>
			<line id="XMLID_232_" class="st1" x1="1187" y1="-10.1" x2="1034.3" y2="142.7"/>
			<line id="XMLID_231_" class="st1" x1="1181.9" y1="-10.1" x2="1029.1" y2="142.7"/>
			<line id="XMLID_230_" class="st1" x1="1176.7" y1="-10.1" x2="1023.9" y2="142.7"/>
			<line id="XMLID_229_" class="st1" x1="1171.5" y1="-10.1" x2="1018.7" y2="142.7"/>
			<line id="XMLID_228_" class="st1" x1="1166.3" y1="-10.1" x2="1013.5" y2="142.7"/>
			<line id="XMLID_227_" class="st1" x1="1161.1" y1="-10.1" x2="1008.3" y2="142.7"/>
			<line id="XMLID_226_" class="st1" x1="1155.9" y1="-10.1" x2="1003.1" y2="142.7"/>
			<line id="XMLID_225_" class="st1" x1="1150.7" y1="-10.1" x2="997.9" y2="142.7"/>
			<line id="XMLID_224_" class="st1" x1="1145.5" y1="-10.1" x2="992.7" y2="142.7"/>
			<line id="XMLID_223_" class="st1" x1="1140.3" y1="-10.1" x2="987.5" y2="142.7"/>
			<line id="XMLID_222_" class="st1" x1="1135.1" y1="-10.1" x2="982.3" y2="142.7"/>
			<line id="XMLID_221_" class="st1" x1="1129.9" y1="-10.1" x2="977.1" y2="142.7"/>
			<line id="XMLID_220_" class="st1" x1="1124.7" y1="-10.1" x2="971.9" y2="142.7"/>
			<line id="XMLID_219_" class="st1" x1="1119.5" y1="-10.1" x2="966.7" y2="142.7"/>
			<line id="XMLID_218_" class="st1" x1="1114.3" y1="-10.1" x2="961.6" y2="142.7"/>
			<line id="XMLID_217_" class="st1" x1="1109.1" y1="-10.1" x2="956.4" y2="142.7"/>
			<line id="XMLID_216_" class="st1" x1="1103.9" y1="-10.1" x2="951.2" y2="142.7"/>
			<line id="XMLID_215_" class="st1" x1="1098.7" y1="-10.1" x2="946" y2="142.7"/>
			<line id="XMLID_214_" class="st1" x1="1093.5" y1="-10.1" x2="940.8" y2="142.7"/>
			<line id="XMLID_213_" class="st1" x1="1088.3" y1="-10.1" x2="935.6" y2="142.7"/>
			<line id="XMLID_212_" class="st1" x1="1083.1" y1="-10.1" x2="930.4" y2="142.7"/>
			<line id="XMLID_211_" class="st1" x1="1077.9" y1="-10.1" x2="925.2" y2="142.7"/>
			<line id="XMLID_210_" class="st1" x1="1072.7" y1="-10.1" x2="920" y2="142.7"/>
			<line id="XMLID_209_" class="st1" x1="1067.6" y1="-10.1" x2="914.8" y2="142.7"/>
			<line id="XMLID_208_" class="st1" x1="1062.4" y1="-10.1" x2="909.6" y2="142.7"/>
			<line id="XMLID_207_" class="st1" x1="1057.2" y1="-10.1" x2="904.4" y2="142.7"/>
			<line id="XMLID_206_" class="st1" x1="1052" y1="-10.1" x2="899.2" y2="142.7"/>
			<line id="XMLID_205_" class="st1" x1="1046.8" y1="-10.1" x2="894" y2="142.7"/>
			<line id="XMLID_204_" class="st1" x1="1041.6" y1="-10.1" x2="888.8" y2="142.7"/>
			<line id="XMLID_203_" class="st1" x1="1036.4" y1="-10.1" x2="883.6" y2="142.7"/>
			<line id="XMLID_202_" class="st1" x1="1031.2" y1="-10.1" x2="878.4" y2="142.7"/>
			<line id="XMLID_201_" class="st1" x1="1026" y1="-10.1" x2="873.2" y2="142.7"/>
			<line id="XMLID_200_" class="st1" x1="1020.8" y1="-10.1" x2="868" y2="142.7"/>
			<line id="XMLID_199_" class="st1" x1="1015.6" y1="-10.1" x2="862.8" y2="142.7"/>
			<line id="XMLID_198_" class="st1" x1="1010.4" y1="-10.1" x2="857.6" y2="142.7"/>
			<line id="XMLID_197_" class="st1" x1="1005.2" y1="-10.1" x2="852.4" y2="142.7"/>
			<line id="XMLID_196_" class="st1" x1="1000" y1="-10.1" x2="847.2" y2="142.7"/>
			<line id="XMLID_195_" class="st1" x1="994.8" y1="-10.1" x2="842.1" y2="142.7"/>
			<line id="XMLID_194_" class="st1" x1="989.6" y1="-10.1" x2="836.9" y2="142.7"/>
			<line id="XMLID_193_" class="st1" x1="984.4" y1="-10.1" x2="831.7" y2="142.7"/>
			<line id="XMLID_192_" class="st1" x1="979.2" y1="-10.1" x2="826.5" y2="142.7"/>
			<line id="XMLID_191_" class="st1" x1="974" y1="-10.1" x2="821.3" y2="142.7"/>
			<line id="XMLID_190_" class="st1" x1="968.8" y1="-10.1" x2="816.1" y2="142.7"/>
			<line id="XMLID_189_" class="st1" x1="963.6" y1="-10.1" x2="810.9" y2="142.7"/>
			<line id="XMLID_188_" class="st1" x1="958.4" y1="-10.1" x2="805.7" y2="142.7"/>
			<line id="XMLID_187_" class="st1" x1="953.2" y1="-10.1" x2="800.5" y2="142.7"/>
			<line id="XMLID_186_" class="st1" x1="948.1" y1="-10.1" x2="795.3" y2="142.7"/>
			<line id="XMLID_185_" class="st1" x1="942.9" y1="-10.1" x2="790.1" y2="142.7"/>
			<line id="XMLID_184_" class="st1" x1="937.7" y1="-10.1" x2="784.9" y2="142.7"/>
			<line id="XMLID_183_" class="st1" x1="932.5" y1="-10.1" x2="779.7" y2="142.7"/>
			<line id="XMLID_182_" class="st1" x1="927.3" y1="-10.1" x2="774.5" y2="142.7"/>
			<line id="XMLID_181_" class="st1" x1="922.1" y1="-10.1" x2="769.3" y2="142.7"/>
			<line id="XMLID_180_" class="st1" x1="916.9" y1="-10.1" x2="764.1" y2="142.7"/>
			<line id="XMLID_179_" class="st1" x1="911.7" y1="-10.1" x2="758.9" y2="142.7"/>
			<line id="XMLID_178_" class="st1" x1="906.5" y1="-10.1" x2="753.7" y2="142.7"/>
			<line id="XMLID_177_" class="st1" x1="901.3" y1="-10.1" x2="748.5" y2="142.7"/>
			<line id="XMLID_176_" class="st1" x1="896.1" y1="-10.1" x2="743.3" y2="142.7"/>
			<line id="XMLID_175_" class="st1" x1="890.9" y1="-10.1" x2="738.1" y2="142.7"/>
			<line id="XMLID_174_" class="st1" x1="885.7" y1="-10.1" x2="732.9" y2="142.7"/>
			<line id="XMLID_173_" class="st1" x1="880.5" y1="-10.1" x2="727.7" y2="142.7"/>
			<line id="XMLID_172_" class="st1" x1="875.3" y1="-10.1" x2="722.6" y2="142.7"/>
			<line id="XMLID_171_" class="st1" x1="870.1" y1="-10.1" x2="717.4" y2="142.7"/>
			<line id="XMLID_170_" class="st1" x1="864.9" y1="-10.1" x2="712.2" y2="142.7"/>
			<line id="XMLID_169_" class="st1" x1="859.7" y1="-10.1" x2="707" y2="142.7"/>
			<line id="XMLID_168_" class="st1" x1="854.5" y1="-10.1" x2="701.8" y2="142.7"/>
			<line id="XMLID_167_" class="st1" x1="849.3" y1="-10.1" x2="696.6" y2="142.7"/>
			<line id="XMLID_166_" class="st1" x1="844.1" y1="-10.1" x2="691.4" y2="142.7"/>
			<line id="XMLID_165_" class="st1" x1="838.9" y1="-10.1" x2="686.2" y2="142.7"/>
			<line id="XMLID_164_" class="st1" x1="833.7" y1="-10.1" x2="681" y2="142.7"/>
			<line id="XMLID_163_" class="st1" x1="828.6" y1="-10.1" x2="675.8" y2="142.7"/>
			<line id="XMLID_162_" class="st1" x1="823.4" y1="-10.1" x2="670.6" y2="142.7"/>
			<line id="XMLID_161_" class="st1" x1="818.2" y1="-10.1" x2="665.4" y2="142.7"/>
			<line id="XMLID_160_" class="st1" x1="813" y1="-10.1" x2="660.2" y2="142.7"/>
			<line id="XMLID_159_" class="st1" x1="807.8" y1="-10.1" x2="655" y2="142.7"/>
			<line id="XMLID_158_" class="st1" x1="802.6" y1="-10.1" x2="649.8" y2="142.7"/>
			<line id="XMLID_157_" class="st1" x1="797.4" y1="-10.1" x2="644.6" y2="142.7"/>
			<line id="XMLID_156_" class="st1" x1="792.2" y1="-10.1" x2="639.4" y2="142.7"/>
			<line id="XMLID_155_" class="st1" x1="787" y1="-10.1" x2="634.2" y2="142.7"/>
			<line id="XMLID_154_" class="st1" x1="781.8" y1="-10.1" x2="629" y2="142.7"/>
			<line id="XMLID_153_" class="st1" x1="776.6" y1="-10.1" x2="623.8" y2="142.7"/>
			<line id="XMLID_152_" class="st1" x1="771.4" y1="-10.1" x2="618.6" y2="142.7"/>
			<line id="XMLID_151_" class="st1" x1="766.2" y1="-10.1" x2="613.4" y2="142.7"/>
			<line id="XMLID_150_" class="st1" x1="761" y1="-10.1" x2="608.2" y2="142.7"/>
			<line id="XMLID_149_" class="st1" x1="755.8" y1="-10.1" x2="603.1" y2="142.7"/>
			<line id="XMLID_148_" class="st1" x1="750.6" y1="-10.1" x2="597.9" y2="142.7"/>
			<line id="XMLID_147_" class="st1" x1="745.4" y1="-10.1" x2="592.7" y2="142.7"/>
			<line id="XMLID_146_" class="st1" x1="740.2" y1="-10.1" x2="587.5" y2="142.7"/>
			<line id="XMLID_145_" class="st1" x1="735" y1="-10.1" x2="582.3" y2="142.7"/>
			<line id="XMLID_144_" class="st1" x1="729.8" y1="-10.1" x2="577.1" y2="142.7"/>
			<line id="XMLID_143_" class="st1" x1="724.6" y1="-10.1" x2="571.9" y2="142.7"/>
			<line id="XMLID_142_" class="st1" x1="719.4" y1="-10.1" x2="566.7" y2="142.7"/>
			<line id="XMLID_141_" class="st1" x1="714.2" y1="-10.1" x2="561.5" y2="142.7"/>
			<line id="XMLID_140_" class="st1" x1="709.1" y1="-10.1" x2="556.3" y2="142.7"/>
			<line id="XMLID_139_" class="st1" x1="703.9" y1="-10.1" x2="551.1" y2="142.7"/>
			<line id="XMLID_138_" class="st1" x1="698.7" y1="-10.1" x2="545.9" y2="142.7"/>
			<line id="XMLID_137_" class="st1" x1="693.5" y1="-10.1" x2="540.7" y2="142.7"/>
			<line id="XMLID_136_" class="st1" x1="688.3" y1="-10.1" x2="535.5" y2="142.7"/>
			<line id="XMLID_135_" class="st1" x1="683.1" y1="-10.1" x2="530.3" y2="142.7"/>
			<line id="XMLID_134_" class="st1" x1="677.9" y1="-10.1" x2="525.1" y2="142.7"/>
			<line id="XMLID_133_" class="st1" x1="672.7" y1="-10.1" x2="519.9" y2="142.7"/>
			<line id="XMLID_132_" class="st1" x1="667.5" y1="-10.1" x2="514.7" y2="142.7"/>
			<line id="XMLID_131_" class="st1" x1="662.3" y1="-10.1" x2="509.5" y2="142.7"/>
			<line id="XMLID_130_" class="st1" x1="657.1" y1="-10.1" x2="504.3" y2="142.7"/>
			<line id="XMLID_129_" class="st1" x1="651.9" y1="-10.1" x2="499.1" y2="142.7"/>
			<line id="XMLID_128_" class="st1" x1="646.7" y1="-10.1" x2="493.9" y2="142.7"/>
			<line id="XMLID_127_" class="st1" x1="641.5" y1="-10.1" x2="488.8" y2="142.7"/>
			<line id="XMLID_126_" class="st1" x1="636.3" y1="-10.1" x2="483.6" y2="142.7"/>
			<line id="XMLID_125_" class="st1" x1="631.1" y1="-10.1" x2="478.4" y2="142.7"/>
			<line id="XMLID_124_" class="st1" x1="625.9" y1="-10.1" x2="473.2" y2="142.7"/>
			<line id="XMLID_123_" class="st1" x1="620.7" y1="-10.1" x2="468" y2="142.7"/>
			<line id="XMLID_122_" class="st1" x1="615.5" y1="-10.1" x2="462.8" y2="142.7"/>
			<line id="XMLID_121_" class="st1" x1="610.3" y1="-10.1" x2="457.6" y2="142.7"/>
			<line id="XMLID_120_" class="st1" x1="605.1" y1="-10.1" x2="452.4" y2="142.7"/>
			<line id="XMLID_119_" class="st1" x1="599.9" y1="-10.1" x2="447.2" y2="142.7"/>
			<line id="XMLID_118_" class="st1" x1="594.8" y1="-10.1" x2="442" y2="142.7"/>
			<line id="XMLID_117_" class="st1" x1="589.6" y1="-10.1" x2="436.8" y2="142.7"/>
			<line id="XMLID_116_" class="st1" x1="584.4" y1="-10.1" x2="431.6" y2="142.7"/>
			<line id="XMLID_115_" class="st1" x1="579.2" y1="-10.1" x2="426.4" y2="142.7"/>
			<line id="XMLID_114_" class="st1" x1="574" y1="-10.1" x2="421.2" y2="142.7"/>
			<line id="XMLID_113_" class="st1" x1="568.8" y1="-10.1" x2="416" y2="142.7"/>
			<line id="XMLID_112_" class="st1" x1="563.6" y1="-10.1" x2="410.8" y2="142.7"/>
			<line id="XMLID_111_" class="st1" x1="558.4" y1="-10.1" x2="405.6" y2="142.7"/>
			<line id="XMLID_110_" class="st1" x1="553.2" y1="-10.1" x2="400.4" y2="142.7"/>
			<line id="XMLID_109_" class="st1" x1="548" y1="-10.1" x2="395.2" y2="142.7"/>
			<line id="XMLID_108_" class="st1" x1="542.8" y1="-10.1" x2="390" y2="142.7"/>
			<line id="XMLID_107_" class="st1" x1="537.6" y1="-10.1" x2="384.8" y2="142.7"/>
			<line id="XMLID_106_" class="st1" x1="532.4" y1="-10.1" x2="379.6" y2="142.7"/>
			<line id="XMLID_105_" class="st1" x1="527.2" y1="-10.1" x2="374.4" y2="142.7"/>
			<line id="XMLID_104_" class="st1" x1="522" y1="-10.1" x2="369.3" y2="142.7"/>
			<line id="XMLID_103_" class="st1" x1="516.8" y1="-10.1" x2="364.1" y2="142.7"/>
			<line id="XMLID_102_" class="st1" x1="511.6" y1="-10.1" x2="358.9" y2="142.7"/>
			<line id="XMLID_101_" class="st1" x1="506.4" y1="-10.1" x2="353.7" y2="142.7"/>
			<line id="XMLID_100_" class="st1" x1="501.2" y1="-10.1" x2="348.5" y2="142.7"/>
			<line id="XMLID_99_" class="st1" x1="496" y1="-10.1" x2="343.3" y2="142.7"/>
			<line id="XMLID_98_" class="st1" x1="490.8" y1="-10.1" x2="338.1" y2="142.7"/>
			<line id="XMLID_97_" class="st1" x1="485.6" y1="-10.1" x2="332.9" y2="142.7"/>
			<line id="XMLID_96_" class="st1" x1="480.4" y1="-10.1" x2="327.7" y2="142.7"/>
			<line id="XMLID_95_" class="st1" x1="475.3" y1="-10.1" x2="322.5" y2="142.7"/>
			<line id="XMLID_94_" class="st1" x1="470.1" y1="-10.1" x2="317.3" y2="142.7"/>
			<line id="XMLID_93_" class="st1" x1="464.9" y1="-10.1" x2="312.1" y2="142.7"/>
			<line id="XMLID_92_" class="st1" x1="459.7" y1="-10.1" x2="306.9" y2="142.7"/>
			<line id="XMLID_91_" class="st1" x1="454.5" y1="-10.1" x2="301.7" y2="142.7"/>
			<line id="XMLID_90_" class="st1" x1="449.3" y1="-10.1" x2="296.5" y2="142.7"/>
			<line id="XMLID_89_" class="st1" x1="444.1" y1="-10.1" x2="291.3" y2="142.7"/>
			<line id="XMLID_88_" class="st1" x1="438.9" y1="-10.1" x2="286.1" y2="142.7"/>
			<line id="XMLID_87_" class="st1" x1="433.7" y1="-10.1" x2="280.9" y2="142.7"/>
			<line id="XMLID_86_" class="st1" x1="428.5" y1="-10.1" x2="275.7" y2="142.7"/>
			<line id="XMLID_85_" class="st1" x1="423.3" y1="-10.1" x2="270.5" y2="142.7"/>
			<line id="XMLID_84_" class="st1" x1="418.1" y1="-10.1" x2="265.3" y2="142.7"/>
			<line id="XMLID_83_" class="st1" x1="412.9" y1="-10.1" x2="260.1" y2="142.7"/>
			<line id="XMLID_82_" class="st1" x1="407.7" y1="-10.1" x2="254.9" y2="142.7"/>
			<line id="XMLID_81_" class="st1" x1="402.5" y1="-10.1" x2="249.8" y2="142.7"/>
			<line id="XMLID_80_" class="st1" x1="397.3" y1="-10.1" x2="244.6" y2="142.7"/>
			<line id="XMLID_79_" class="st1" x1="392.1" y1="-10.1" x2="239.4" y2="142.7"/>
			<line id="XMLID_78_" class="st1" x1="386.9" y1="-10.1" x2="234.2" y2="142.7"/>
			<line id="XMLID_77_" class="st1" x1="381.7" y1="-10.1" x2="229" y2="142.7"/>
			<line id="XMLID_76_" class="st1" x1="376.5" y1="-10.1" x2="223.8" y2="142.7"/>
			<line id="XMLID_75_" class="st1" x1="371.3" y1="-10.1" x2="218.6" y2="142.7"/>
			<line id="XMLID_74_" class="st1" x1="366.1" y1="-10.1" x2="213.4" y2="142.7"/>
			<line id="XMLID_73_" class="st1" x1="360.9" y1="-10.1" x2="208.2" y2="142.7"/>
			<line id="XMLID_72_" class="st1" x1="355.8" y1="-10.1" x2="203" y2="142.7"/>
			<line id="XMLID_71_" class="st1" x1="350.6" y1="-10.1" x2="197.8" y2="142.7"/>
			<line id="XMLID_70_" class="st1" x1="345.4" y1="-10.1" x2="192.6" y2="142.7"/>
			<line id="XMLID_69_" class="st1" x1="340.2" y1="-10.1" x2="187.4" y2="142.7"/>
			<line id="XMLID_68_" class="st1" x1="335" y1="-10.1" x2="182.2" y2="142.7"/>
			<line id="XMLID_67_" class="st1" x1="329.8" y1="-10.1" x2="177" y2="142.7"/>
			<line id="XMLID_66_" class="st1" x1="324.6" y1="-10.1" x2="171.8" y2="142.7"/>
			<line id="XMLID_65_" class="st1" x1="319.4" y1="-10.1" x2="166.6" y2="142.7"/>
			<line id="XMLID_64_" class="st1" x1="314.2" y1="-10.1" x2="161.4" y2="142.7"/>
			<line id="XMLID_63_" class="st1" x1="309" y1="-10.1" x2="156.2" y2="142.7"/>
			<line id="XMLID_62_" class="st1" x1="303.8" y1="-10.1" x2="151" y2="142.7"/>
			<line id="XMLID_61_" class="st1" x1="298.6" y1="-10.1" x2="145.8" y2="142.7"/>
			<line id="XMLID_60_" class="st1" x1="293.4" y1="-10.1" x2="140.6" y2="142.7"/>
			<line id="XMLID_59_" class="st1" x1="288.2" y1="-10.1" x2="135.4" y2="142.7"/>
			<line id="XMLID_58_" class="st1" x1="283" y1="-10.1" x2="130.3" y2="142.7"/>
			<line id="XMLID_57_" class="st1" x1="277.8" y1="-10.1" x2="125.1" y2="142.7"/>
			<line id="XMLID_56_" class="st1" x1="272.6" y1="-10.1" x2="119.9" y2="142.7"/>
			<line id="XMLID_55_" class="st1" x1="267.4" y1="-10.1" x2="114.7" y2="142.7"/>
			<line id="XMLID_54_" class="st1" x1="262.2" y1="-10.1" x2="109.5" y2="142.7"/>
			<line id="XMLID_53_" class="st1" x1="257" y1="-10.1" x2="104.3" y2="142.7"/>
			<line id="XMLID_52_" class="st1" x1="251.8" y1="-10.1" x2="99.1" y2="142.7"/>
			<line id="XMLID_51_" class="st1" x1="246.6" y1="-10.1" x2="93.9" y2="142.7"/>
			<line id="XMLID_50_" class="st1" x1="241.4" y1="-10.1" x2="88.7" y2="142.7"/>
			<line id="XMLID_49_" class="st1" x1="236.3" y1="-10.1" x2="83.5" y2="142.7"/>
			<line id="XMLID_48_" class="st1" x1="231.1" y1="-10.1" x2="78.3" y2="142.7"/>
			<line id="XMLID_47_" class="st1" x1="225.9" y1="-10.1" x2="73.1" y2="142.7"/>
			<line id="XMLID_46_" class="st1" x1="220.7" y1="-10.1" x2="67.9" y2="142.7"/>
			<line id="XMLID_45_" class="st1" x1="215.5" y1="-10.1" x2="62.7" y2="142.7"/>
			<line id="XMLID_44_" class="st1" x1="210.3" y1="-10.1" x2="57.5" y2="142.7"/>
			<line id="XMLID_43_" class="st1" x1="205.1" y1="-10.1" x2="52.3" y2="142.7"/>
			<line id="XMLID_42_" class="st1" x1="199.9" y1="-10.1" x2="47.1" y2="142.7"/>
			<line id="XMLID_41_" class="st1" x1="194.7" y1="-10.1" x2="41.9" y2="142.7"/>
			<line id="XMLID_40_" class="st1" x1="189.5" y1="-10.1" x2="36.7" y2="142.7"/>
			<line id="XMLID_39_" class="st1" x1="184.3" y1="-10.1" x2="31.5" y2="142.7"/>
			<line id="XMLID_38_" class="st1" x1="179.1" y1="-10.1" x2="26.3" y2="142.7"/>
			<line id="XMLID_37_" class="st1" x1="173.9" y1="-10.1" x2="21.1" y2="142.7"/>
			<line id="XMLID_36_" class="st1" x1="168.7" y1="-10.1" x2="16" y2="142.7"/>
			<line id="XMLID_35_" class="st1" x1="163.5" y1="-10.1" x2="10.8" y2="142.7"/>
			<line id="XMLID_34_" class="st1" x1="158.3" y1="-10.1" x2="5.6" y2="142.7"/>
			<line id="XMLID_33_" class="st1" x1="153.1" y1="-10.1" x2="0.4" y2="142.7"/>
			<line id="XMLID_32_" class="st1" x1="147.9" y1="-10.1" x2="-4.8" y2="142.7"/>
			<line id="XMLID_31_" class="st1" x1="142.7" y1="-10.1" x2="-10" y2="142.7"/>
			<line id="XMLID_30_" class="st1" x1="137.5" y1="-10.1" x2="-15.2" y2="142.7"/>
			<line id="XMLID_29_" class="st1" x1="132.3" y1="-10.1" x2="-20.4" y2="142.7"/>
			<line id="XMLID_28_" class="st1" x1="127.1" y1="-10.1" x2="-25.6" y2="142.7"/>
			<line id="XMLID_27_" class="st1" x1="122" y1="-10.1" x2="-30.8" y2="142.7"/>
			<line id="XMLID_26_" class="st1" x1="116.8" y1="-10.1" x2="-36" y2="142.7"/>
			<line id="XMLID_25_" class="st1" x1="111.6" y1="-10.1" x2="-41.2" y2="142.7"/>
			<line id="XMLID_24_" class="st1" x1="106.4" y1="-10.1" x2="-46.4" y2="142.7"/>
			<line id="XMLID_23_" class="st1" x1="101.2" y1="-10.1" x2="-51.6" y2="142.7"/>
			<line id="XMLID_22_" class="st1" x1="96" y1="-10.1" x2="-56.8" y2="142.7"/>
			<line id="XMLID_21_" class="st1" x1="90.8" y1="-10.1" x2="-62" y2="142.7"/>
			<line id="XMLID_20_" class="st1" x1="85.6" y1="-10.1" x2="-67.2" y2="142.7"/>
			<line id="XMLID_19_" class="st1" x1="80.4" y1="-10.1" x2="-72.4" y2="142.7"/>
			<line id="XMLID_18_" class="st1" x1="75.2" y1="-10.1" x2="-77.6" y2="142.7"/>
			<line id="XMLID_17_" class="st1" x1="70" y1="-10.1" x2="-82.8" y2="142.7"/>
			<line id="XMLID_16_" class="st1" x1="64.8" y1="-10.1" x2="-88" y2="142.7"/>
			<line id="XMLID_15_" class="st1" x1="59.6" y1="-10.1" x2="-93.2" y2="142.7"/>
			<line id="XMLID_14_" class="st1" x1="54.4" y1="-10.1" x2="-98.4" y2="142.7"/>
			<line id="XMLID_13_" class="st1" x1="49.2" y1="-10.1" x2="-103.5" y2="142.7"/>
			<line id="XMLID_12_" class="st1" x1="44" y1="-10.1" x2="-108.7" y2="142.7"/>
			<line id="XMLID_11_" class="st1" x1="38.8" y1="-10.1" x2="-113.9" y2="142.7"/>
			<line id="XMLID_10_" class="st1" x1="33.6" y1="-10.1" x2="-119.1" y2="142.7"/>
			<line id="XMLID_9_" class="st1" x1="28.4" y1="-10.1" x2="-124.3" y2="142.7"/>
			<line id="XMLID_8_" class="st1" x1="23.2" y1="-10.1" x2="-129.5" y2="142.7"/>
			<line id="XMLID_7_" class="st1" x1="18" y1="-10.1" x2="-134.7" y2="142.7"/>
			<line id="XMLID_6_" class="st1" x1="12.8" y1="-10.1" x2="-139.9" y2="142.7"/>
			<line id="XMLID_5_" class="st1" x1="7.6" y1="-10.1" x2="-145.1" y2="142.7"/>
			<line id="XMLID_4_" class="st1" x1="2.5" y1="-10.1" x2="-150.3" y2="142.7"/>
			<line id="XMLID_3_" class="st1" x1="-2.7" y1="-10.1" x2="-155.5" y2="142.7"/>
			<line id="XMLID_1_" class="st1" x1="-7.9" y1="-10.1" x2="-160.7" y2="142.7"/>
		</g>
	</g>
</g>
</svg>
