<?xml version="1.0" encoding="utf-8"?>
<!-- Generator: Adobe Illustrator 19.0.0, SVG Export Plug-In . SVG Version: 6.00 Build 0)  -->
<svg version="1.1" id="Layer_1" xmlns="http://www.w3.org/2000/svg" xmlns:xlink="http://www.w3.org/1999/xlink" x="0px" y="0px"
	 width="18.3px" height="18.3px" viewBox="-1290 791.7 18.3 18.3" style="enable-background:new -1290 791.7 18.3 18.3;"
	 xml:space="preserve">
<style type="text/css">
	.st0{fill:#929292;}
</style>
<path class="st0" d="M-1271.7,807.9l-3.4-3.4c0.9-1.3,1.4-2.9,1.4-4.6c-0.1-4.5-3.7-8.1-8.1-8.1c-4.5,0-8.1,3.6-8.1,8.1
	s3.6,8.1,8.1,8.1c1.7,0,3.3-0.5,4.6-1.4l3.4,3.4L-1271.7,807.9z M-1288.4,799.9c0-3.7,2.9-6.6,6.6-6.6c3.6,0,6.6,2.9,6.6,6.6
	c0,3.6-2.9,6.6-6.6,6.6S-1288.4,803.6-1288.4,799.9z"/>
</svg>
